﻿freemen = {
	output_modifier = {
		local_manpower = 0.006
		tax_income = 0.005
	}
	
	count_modifier = {
		pop_food_consumption = -0.2
	}
	
	levy_tier = basic

	can_promote_to = citizen	
	demotes_to = slaves
	
	conquest_demote_chance = 25

	base_happyness = 0
	
	default_pop_right = yes

	political_weight = 1

	
	color = hsv { 0.14  0.88  0.85 }
	
	# Activity Speeds
	growing_pop = 0.0
	convert = 0.6
	assimilate = 0.6
	promote = 6
	demote = 6

	migrant = 1
	ui_tier = 3
	

	modification_display = {
		0 = value_manpower
		1 = value_income
	}
}
